optical_pumping/-0.6V,0T.CSV

Model,TBS2104
Firmware Version,v1.26.0

Point Format,Y
Horizontal Units,S
Horizontal Scale,0.01
Sample Interval,8e-05
Filter Frequency,1e+08
Record Length,2000
Gating,0.0% to 100.0%
Probe Attenuation,10
Vertical Units,V
Vertical Offset,0
Vertical Scale,5
Label,
TIME,CH2
-5.6000e-02,0.644531
-5.5920e-02,1.14844
-5.5840e-02,0.933594
-5.5760e-02,0.75
-5.5680e-02,0.75
-5.5600e-02,0.652344
-5.5520e-02,0.644531
-5.5440e-02,0.589844
-5.5360e-02,1.20703
-5.5280e-02,1.79297
-5.5200e-02,3.76562
-5.5120e-02,6.30078
-5.5040e-02,5.3125
-5.4960e-02,2.67578
-5.4880e-02,1.07812
-5.4800e-02,0.738281
-5.4720e-02,0.582031
-5.4640e-02,0.667969
-5.4560e-02,0.546875
-5.4480e-02,0.628906
-5.4400e-02,0.867188
-5.4320e-02,1.05859
-5.4240e-02,1.08594
-5.4160e-02,0.75
-5.4080e-02,0.785156
-5.4000e-02,0.714844
-5.3920e-02,0.597656
-5.3840e-02,0.5625
-5.3760e-02,0.960938
-5.3680e-02,2.01562
-5.3600e-02,4.36719
-5.3520e-02,6.28125
-5.3440e-02,4.51562
-5.3360e-02,2.31641
-5.3280e-02,1.60938
-5.3200e-02,0.863281
-5.3120e-02,0.5625
-5.3040e-02,0.609375
-5.2960e-02,0.59375
-5.2880e-02,0.597656
-5.2800e-02,0.691406
-5.2720e-02,0.972656
-5.2640e-02,0.839844
-5.2560e-02,0.6875
-5.2480e-02,0.609375
-5.2400e-02,0.75
-5.2320e-02,0.714844
-5.2240e-02,0.75
-5.2160e-02,1.05469
-5.2080e-02,1.58203
-5.2000e-02,3.75391
-5.1920e-02,6.02344
-5.1840e-02,5.06641
-5.1760e-02,2.64844
-5.1680e-02,1.31641
-5.1600e-02,0.535156
-5.1520e-02,0.667969
-5.1440e-02,0.582031
-5.1360e-02,0.605469
-5.1280e-02,0.59375
-5.1200e-02,0.71875
-5.1120e-02,1.12891
-5.1040e-02,1.02734
-5.0960e-02,0.890625
-5.0880e-02,0.785156
-5.0800e-02,0.777344
-5.0720e-02,0.605469
-5.0640e-02,0.535156
-5.0560e-02,1.00781
-5.0480e-02,1.87109
-5.0400e-02,3.96094
-5.0320e-02,6.03125
-5.0240e-02,4.27344
-5.0160e-02,2.12109
-5.0080e-02,1.35547
-5.0000e-02,0.625
-4.9920e-02,0.707031
-4.9840e-02,0.511719
-4.9760e-02,0.535156
-4.9680e-02,0.75
-4.9600e-02,0.652344
-4.9520e-02,0.988281
-4.9440e-02,0.730469
-4.9360e-02,0.75
-4.9280e-02,0.6875
-4.9200e-02,0.75
-4.9120e-02,0.609375
-4.9040e-02,0.761719
-4.8960e-02,1.04297
-4.8880e-02,1.48438
-4.8800e-02,3.50391
-4.8720e-02,5.71484
-4.8640e-02,4.62891
-4.8560e-02,2.48828
-4.8480e-02,1.23828
-4.8400e-02,0.597656
-4.8320e-02,0.488281
-4.8240e-02,0.5
-4.8160e-02,0.546875
-4.8080e-02,0.546875
-4.8000e-02,0.796875
-4.7920e-02,1.12109
-4.7840e-02,0.839844
-4.7760e-02,0.855469
-4.7680e-02,0.644531
-4.7600e-02,0.714844
-4.7520e-02,0.644531
-4.7440e-02,0.644531
-4.7360e-02,1.08594
-4.7280e-02,1.96875
-4.7200e-02,3.86719
-4.7120e-02,5.66016
-4.7040e-02,4.26953
-4.6960e-02,2.08594
-4.6880e-02,1.14844
-4.6800e-02,0.820312
-4.6720e-02,0.488281
-4.6640e-02,0.546875
-4.6560e-02,0.609375
-4.6480e-02,0.546875
-4.6400e-02,0.742188
-4.6320e-02,1.00781
-4.6240e-02,0.898438
-4.6160e-02,0.652344
-4.6080e-02,0.6875
-4.6000e-02,0.644531
-4.5920e-02,0.5
-4.5840e-02,0.882812
-4.5760e-02,1.00781
-4.5680e-02,1.51172
-4.5600e-02,3.41016
-4.5520e-02,5.41797
-4.5440e-02,4.36328
-4.5360e-02,2.32031
-4.5280e-02,1.16406
-4.5200e-02,0.535156
-4.5120e-02,0.597656
-4.5040e-02,0.535156
-4.4960e-02,0.6875
-4.4880e-02,0.597656
-4.4800e-02,0.796875
-4.4720e-02,1.31641
-4.4640e-02,0.960938
-4.4560e-02,0.699219
-4.4480e-02,0.820312
-4.4400e-02,0.75
-4.4320e-02,0.457031
-4.4240e-02,0.628906
-4.4160e-02,1.10938
-4.4080e-02,1.75781
-4.4000e-02,3.60938
-4.3920e-02,5.47266
-4.3840e-02,4.17188
-4.3760e-02,1.90625
-4.3680e-02,1.15625
-4.3600e-02,1.04297
-4.3520e-02,0.6875
-4.3440e-02,0.546875
-4.3360e-02,0.4375
-4.3280e-02,0.5625
-4.3200e-02,0.546875
-4.3120e-02,0.820312
-4.3040e-02,0.90625
-4.2960e-02,0.707031
-4.2880e-02,0.667969
-4.2800e-02,0.546875
-4.2720e-02,0.6875
-4.2640e-02,0.535156
-4.2560e-02,0.671875
-4.2480e-02,1.24219
-4.2400e-02,3.26953
-4.2320e-02,5.125
-4.2240e-02,4.17188
-4.2160e-02,2.32031
-4.2080e-02,1.12891
-4.2000e-02,0.617188
-4.1920e-02,0.582031
-4.1840e-02,0.652344
-4.1760e-02,0.527344
-4.1680e-02,0.597656
-4.1600e-02,0.949219
-4.1520e-02,1.28125
-4.1440e-02,1.04297
-4.1360e-02,0.75
-4.1280e-02,0.714844
-4.1200e-02,0.609375
-4.1120e-02,0.703125
-4.1040e-02,0.644531
-4.0960e-02,1.20703
-4.0880e-02,1.69531
-4.0800e-02,3.35547
-4.0720e-02,5.125
-4.0640e-02,3.92188
-4.0560e-02,1.72656
-4.0480e-02,1.14062
-4.0400e-02,0.839844
-4.0320e-02,0.613281
-4.0240e-02,0.5
-4.0160e-02,0.597656
-4.0080e-02,0.5625
-4.0000e-02,0.714844
-3.9920e-02,0.917969
-3.9840e-02,0.945312
-3.9760e-02,0.667969
-3.9680e-02,0.8125
-3.9600e-02,0.597656
-3.9520e-02,0.707031
-3.9440e-02,0.59375
-3.9360e-02,0.722656
-3.9280e-02,1.28516
-3.9200e-02,3.15234
-3.9120e-02,5.0625
-3.9040e-02,3.85938
-3.8960e-02,2.12891
-3.8880e-02,1.33984
-3.8800e-02,0.773438
-3.8720e-02,0.714844
-3.8640e-02,0.5
-3.8560e-02,0.667969
-3.8480e-02,0.5
-3.8400e-02,0.859375
-3.8320e-02,1.23828
-3.8240e-02,0.945312
-3.8160e-02,0.617188
-3.8080e-02,0.75
-3.8000e-02,0.703125
-3.7920e-02,0.667969
-3.7840e-02,0.675781
-3.7760e-02,1.09375
-3.7680e-02,1.55859
-3.7600e-02,3.16797
-3.7520e-02,4.91016
-3.7440e-02,3.90625
-3.7360e-02,1.75391
-3.7280e-02,1.0625
-3.7200e-02,0.792969
-3.7120e-02,0.75
-3.7040e-02,0.546875
-3.6960e-02,0.515625
-3.6880e-02,0.574219
-3.6800e-02,0.933594
-3.6720e-02,1.31641
-3.6640e-02,0.953125
-3.6560e-02,0.703125
-3.6480e-02,0.75
-3.6400e-02,0.640625
-3.6320e-02,0.644531
-3.6240e-02,0.644531
-3.6160e-02,0.582031
-3.6080e-02,0.644531
-3.6000e-02,0.511719
-3.5920e-02,0.5
-3.5840e-02,0.644531
-3.5760e-02,0.582031
-3.5680e-02,0.796875
-3.5600e-02,0.738281
-3.5520e-02,0.75
-3.5440e-02,0.746094
-3.5360e-02,0.476562
-3.5280e-02,0.472656
-3.5200e-02,0.679688
-3.5120e-02,0.5
-3.5040e-02,0.5
-3.4960e-02,0.609375
-3.4880e-02,0.453125
-3.4800e-02,0.652344
-3.4720e-02,0.75
-3.4640e-02,0.617188
-3.4560e-02,0.5625
-3.4480e-02,0.5625
-3.4400e-02,0.5
-3.4320e-02,0.746094
-3.4240e-02,0.558594
-3.4160e-02,0.699219
-3.4080e-02,0.75
-3.4000e-02,0.6875
-3.3920e-02,0.546875
-3.3840e-02,0.679688
-3.3760e-02,0.609375
-3.3680e-02,0.652344
-3.3600e-02,0.453125
-3.3520e-02,0.605469
-3.3440e-02,0.597656
-3.3360e-02,0.597656
-3.3280e-02,0.597656
-3.3200e-02,0.617188
-3.3120e-02,0.714844
-3.3040e-02,0.609375
-3.2960e-02,0.546875
-3.2880e-02,0.550781
-3.2800e-02,0.652344
-3.2720e-02,0.75
-3.2640e-02,0.597656
-3.2560e-02,0.820312
-3.2480e-02,0.597656
-3.2400e-02,0.5625
-3.2320e-02,0.5625
-3.2240e-02,0.5625
-3.2160e-02,0.632812
-3.2080e-02,0.484375
-3.2000e-02,0.535156
-3.1920e-02,0.605469
-3.1840e-02,0.640625
-3.1760e-02,0.5625
-3.1680e-02,0.703125
-3.1600e-02,0.535156
-3.1520e-02,0.546875
-3.1440e-02,0.75
-3.1360e-02,0.597656
-3.1280e-02,0.4375
-3.1200e-02,0.6875
-3.1120e-02,0.464844
-3.1040e-02,0.714844
-3.0960e-02,0.644531
-3.0880e-02,0.644531
-3.0800e-02,0.667969
-3.0720e-02,0.582031
-3.0640e-02,0.667969
-3.0560e-02,0.597656
-3.0480e-02,0.4375
-3.0400e-02,0.59375
-3.0320e-02,0.5625
-3.0240e-02,0.5
-3.0160e-02,0.597656
-3.0080e-02,0.667969
-3.0000e-02,0.5625
-2.9920e-02,0.59375
-2.9840e-02,0.679688
-2.9760e-02,0.644531
-2.9680e-02,0.5
-2.9600e-02,0.714844
-2.9520e-02,0.640625
-2.9440e-02,0.582031
-2.9360e-02,0.546875
-2.9280e-02,0.746094
-2.9200e-02,0.605469
-2.9120e-02,0.582031
-2.9040e-02,0.609375
-2.8960e-02,0.472656
-2.8880e-02,0.652344
-2.8800e-02,0.582031
-2.8720e-02,0.640625
-2.8640e-02,0.546875
-2.8560e-02,0.597656
-2.8480e-02,0.605469
-2.8400e-02,0.5
-2.8320e-02,0.546875
-2.8240e-02,0.5
-2.8160e-02,0.652344
-2.8080e-02,0.472656
-2.8000e-02,0.5625
-2.7920e-02,0.535156
-2.7840e-02,0.5625
-2.7760e-02,0.582031
-2.7680e-02,0.667969
-2.7600e-02,0.4375
-2.7520e-02,0.652344
-2.7440e-02,0.675781
-2.7360e-02,0.539062
-2.7280e-02,0.4375
-2.7200e-02,0.511719
-2.7120e-02,0.605469
-2.7040e-02,0.582031
-2.6960e-02,0.5625
-2.6880e-02,0.652344
-2.6800e-02,0.4375
-2.6720e-02,0.597656
-2.6640e-02,0.5625
-2.6560e-02,0.667969
-2.6480e-02,0.5625
-2.6400e-02,0.546875
-2.6320e-02,0.488281
-2.6240e-02,0.582031
-2.6160e-02,0.453125
-2.6080e-02,0.652344
-2.6000e-02,0.652344
-2.5920e-02,0.605469
-2.5840e-02,0.605469
-2.5760e-02,0.582031
-2.5680e-02,0.535156
-2.5600e-02,0.714844
-2.5520e-02,0.5
-2.5440e-02,0.5
-2.5360e-02,0.589844
-2.5280e-02,0.421875
-2.5200e-02,0.5
-2.5120e-02,0.667969
-2.5040e-02,0.605469
-2.4960e-02,0.464844
-2.4880e-02,0.5
-2.4800e-02,0.511719
-2.4720e-02,0.640625
-2.4640e-02,0.640625
-2.4560e-02,0.605469
-2.4480e-02,0.535156
-2.4400e-02,0.511719
-2.4320e-02,0.640625
-2.4240e-02,0.5
-2.4160e-02,0.640625
-2.4080e-02,0.640625
-2.4000e-02,0.5625
-2.3920e-02,0.582031
-2.3840e-02,0.5625
-2.3760e-02,0.640625
-2.3680e-02,0.503906
-2.3600e-02,0.394531
-2.3520e-02,0.605469
-2.3440e-02,0.546875
-2.3360e-02,0.546875
-2.3280e-02,0.5625
-2.3200e-02,0.582031
-2.3120e-02,0.597656
-2.3040e-02,0.714844
-2.2960e-02,0.445312
-2.2880e-02,0.570312
-2.2800e-02,0.765625
-2.2720e-02,0.5625
-2.2640e-02,0.605469
-2.2560e-02,0.535156
-2.2480e-02,0.652344
-2.2400e-02,0.605469
-2.2320e-02,0.597656
-2.2240e-02,0.667969
-2.2160e-02,0.652344
-2.2080e-02,0.597656
-2.2000e-02,0.5
-2.1920e-02,0.546875
-2.1840e-02,0.578125
-2.1760e-02,0.546875
-2.1680e-02,0.597656
-2.1600e-02,0.644531
-2.1520e-02,0.605469
-2.1440e-02,0.5
-2.1360e-02,0.609375
-2.1280e-02,0.605469
-2.1200e-02,0.429688
-2.1120e-02,0.613281
-2.1040e-02,0.640625
-2.0960e-02,0.65625
-2.0880e-02,0.644531
-2.0800e-02,0.5625
-2.0720e-02,0.667969
-2.0640e-02,0.546875
-2.0560e-02,0.582031
-2.0480e-02,0.546875
-2.0400e-02,0.578125
-2.0320e-02,0.667969
-2.0240e-02,0.660156
-2.0160e-02,0.640625
-2.0080e-02,0.5
-2.0000e-02,0.597656
-1.9920e-02,0.582031
-1.9840e-02,0.558594
-1.9760e-02,0.546875
-1.9680e-02,0.5625
-1.9600e-02,0.605469
-1.9520e-02,0.714844
-1.9440e-02,0.546875
-1.9360e-02,0.617188
-1.9280e-02,0.546875
-1.9200e-02,0.777344
-1.9120e-02,0.609375
-1.9040e-02,0.570312
-1.8960e-02,0.644531
-1.8880e-02,0.644531
-1.8800e-02,0.464844
-1.8720e-02,0.5
-1.8640e-02,0.535156
-1.8560e-02,0.4375
-1.8480e-02,0.640625
-1.8400e-02,0.644531
-1.8320e-02,0.546875
-1.8240e-02,0.5625
-1.8160e-02,0.5
-1.8080e-02,0.609375
-1.8000e-02,0.597656
-1.7920e-02,0.546875
-1.7840e-02,0.625
-1.7760e-02,0.609375
-1.7680e-02,0.640625
-1.7600e-02,0.5
-1.7520e-02,0.535156
-1.7440e-02,0.511719
-1.7360e-02,0.644531
-1.7280e-02,0.597656
-1.7200e-02,0.597656
-1.7120e-02,0.546875
-1.7040e-02,0.652344
-1.6960e-02,0.597656
-1.6880e-02,0.535156
-1.6800e-02,0.667969
-1.6720e-02,0.546875
-1.6640e-02,0.644531
-1.6560e-02,0.5
-1.6480e-02,0.5625
-1.6400e-02,0.5625
-1.6320e-02,0.75
-1.6240e-02,0.644531
-1.6160e-02,0.652344
-1.6080e-02,0.667969
-1.6000e-02,0.605469
-1.5920e-02,0.667969
-1.5840e-02,0.535156
-1.5760e-02,0.75
-1.5680e-02,0.605469
-1.5600e-02,0.605469
-1.5520e-02,0.640625
-1.5440e-02,0.5625
-1.5360e-02,0.5625
-1.5280e-02,0.652344
-1.5200e-02,0.605469
-1.5120e-02,0.605469
-1.5040e-02,0.5
-1.4960e-02,0.5
-1.4880e-02,0.632812
-1.4800e-02,0.582031
-1.4720e-02,0.394531
-1.4640e-02,0.5
-1.4560e-02,0.5625
-1.4480e-02,0.667969
-1.4400e-02,0.675781
-1.4320e-02,0.605469
-1.4240e-02,0.472656
-1.4160e-02,0.4375
-1.4080e-02,0.511719
-1.4000e-02,0.75
-1.3920e-02,0.714844
-1.3840e-02,0.5
-1.3760e-02,0.609375
-1.3680e-02,0.597656
-1.3600e-02,0.605469
-1.3520e-02,0.609375
-1.3440e-02,0.652344
-1.3360e-02,0.5
-1.3280e-02,0.546875
-1.3200e-02,0.597656
-1.3120e-02,0.597656
-1.3040e-02,0.5
-1.2960e-02,0.792969
-1.2880e-02,0.597656
-1.2800e-02,0.617188
-1.2720e-02,0.714844
-1.2640e-02,0.640625
-1.2560e-02,0.640625
-1.2480e-02,0.609375
-1.2400e-02,0.609375
-1.2320e-02,0.5625
-1.2240e-02,0.535156
-1.2160e-02,0.542969
-1.2080e-02,0.75
-1.2000e-02,0.597656
-1.1920e-02,0.515625
-1.1840e-02,0.546875
-1.1760e-02,0.5625
-1.1680e-02,0.605469
-1.1600e-02,0.597656
-1.1520e-02,0.453125
-1.1440e-02,0.5
-1.1360e-02,0.6875
-1.1280e-02,0.472656
-1.1200e-02,0.597656
-1.1120e-02,0.578125
-1.1040e-02,0.5
-1.0960e-02,0.609375
-1.0880e-02,0.550781
-1.0800e-02,0.5
-1.0720e-02,0.667969
-1.0640e-02,0.644531
-1.0560e-02,0.5
-1.0480e-02,0.6875
-1.0400e-02,0.597656
-1.0320e-02,0.671875
-1.0240e-02,0.714844
-1.0160e-02,0.5625
-1.0080e-02,0.394531
-1.0000e-02,0.605469
-9.9200e-03,0.519531
-9.8400e-03,0.652344
-9.7600e-03,0.667969
-9.6800e-03,0.527344
-9.6000e-03,0.640625
-9.5200e-03,0.625
-9.4400e-03,0.558594
-9.3600e-03,0.546875
-9.2800e-03,0.605469
-9.2000e-03,0.5625
-9.1200e-03,0.75
-9.0400e-03,0.5
-8.9600e-03,0.714844
-8.8800e-03,0.714844
-8.8000e-03,0.546875
-8.7200e-03,0.714844
-8.6400e-03,0.710938
-8.5600e-03,0.542969
-8.4800e-03,0.5
-8.4000e-03,0.464844
-8.3200e-03,0.550781
-8.2400e-03,0.527344
-8.1600e-03,0.746094
-8.0800e-03,0.625
-8.0000e-03,0.5
-7.9200e-03,0.492188
-7.8400e-03,0.640625
-7.7600e-03,0.5625
-7.6800e-03,0.5
-7.6000e-03,0.597656
-7.5200e-03,0.5625
-7.4400e-03,0.394531
-7.3600e-03,0.394531
-7.2800e-03,0.5
-7.2000e-03,0.632812
-7.1200e-03,0.796875
-7.0400e-03,0.582031
-6.9600e-03,0.441406
-6.8800e-03,0.777344
-6.8000e-03,0.546875
-6.7200e-03,0.5
-6.6400e-03,0.703125
-6.5600e-03,0.535156
-6.4800e-03,0.546875
-6.4000e-03,0.644531
-6.3200e-03,0.535156
-6.2400e-03,0.597656
-6.1600e-03,0.546875
-6.0800e-03,0.546875
-6.0000e-03,0.75
-5.9200e-03,0.5625
-5.8400e-03,0.652344
-5.7600e-03,0.667969
-5.6800e-03,0.667969
-5.6000e-03,0.667969
-5.5200e-03,0.5
-5.4400e-03,0.359375
-5.3600e-03,0.453125
-5.2800e-03,0.5625
-5.2000e-03,0.640625
-5.1200e-03,0.5
-5.0400e-03,0.652344
-4.9600e-03,0.75
-4.8800e-03,0.855469
-4.8000e-03,0.644531
-4.7200e-03,0.609375
-4.6400e-03,0.640625
-4.5600e-03,0.535156
-4.4800e-03,0.6875
-4.4000e-03,0.535156
-4.3200e-03,0.535156
-4.2400e-03,0.640625
-4.1600e-03,0.546875
-4.0800e-03,0.75
-4.0000e-03,0.5
-3.9200e-03,0.535156
-3.8400e-03,0.515625
-3.7600e-03,0.5625
-3.6800e-03,0.5625
-3.6000e-03,0.667969
-3.5200e-03,0.605469
-3.4400e-03,0.5
-3.3600e-03,0.609375
-3.2800e-03,0.5
-3.2000e-03,0.546875
-3.1200e-03,0.515625
-3.0400e-03,0.394531
-2.9600e-03,0.5
-2.8800e-03,0.5
-2.8000e-03,0.632812
-2.7200e-03,0.5625
-2.6400e-03,0.535156
-2.5600e-03,0.609375
-2.4800e-03,0.644531
-2.4000e-03,0.5
-2.3200e-03,0.605469
-2.2400e-03,0.535156
-2.1600e-03,0.535156
-2.0800e-03,0.605469
-2.0000e-03,0.640625
-1.9200e-03,0.5625
-1.8400e-03,0.535156
-1.7600e-03,0.597656
-1.6800e-03,0.605469
-1.6000e-03,0.6875
-1.5200e-03,0.730469
-1.4400e-03,0.4375
-1.3600e-03,0.457031
-1.2800e-03,0.707031
-1.2000e-03,0.640625
-1.1200e-03,0.703125
-1.0400e-03,0.5
-9.6000e-04,0.75
-8.8000e-04,0.597656
-8.0000e-04,0.535156
-7.2000e-04,0.597656
-6.4000e-04,0.476562
-5.6000e-04,0.652344
-4.8000e-04,0.527344
-4.0000e-04,0.5
-3.2000e-04,0.5
-2.4000e-04,0.5
-1.6000e-04,0.5625
-8.0000e-05,0.535156
-9.1789e-16,2.16797
8.0000e-05,8.59375
1.6000e-04,4.56641
2.4000e-04,2.30469
3.2000e-04,1.22266
4.0000e-04,0.769531
4.8000e-04,0.453125
5.6000e-04,0.714844
6.4000e-04,0.640625
7.2000e-04,0.605469
8.0000e-04,0.6875
8.8000e-04,0.75
9.6000e-04,0.671875
1.0400e-03,0.9375
1.1200e-03,0.796875
1.2000e-03,0.753906
1.2800e-03,1.01562
1.3600e-03,1.76562
1.4400e-03,3.21875
1.5200e-03,7.98438
1.6000e-03,14.207
1.6800e-03,6.35547
1.7600e-03,3.12109
1.8400e-03,1.72266
1.9200e-03,0.832031
2.0000e-03,0.75
2.0800e-03,0.535156
2.1600e-03,0.75
2.2400e-03,0.703125
2.3200e-03,0.75
2.4000e-03,0.425781
2.4800e-03,0.757812
2.5600e-03,0.75
2.6400e-03,0.847656
2.7200e-03,0.785156
2.8000e-03,0.785156
2.8800e-03,0.832031
2.9600e-03,1.3125
3.0400e-03,2.1875
3.1200e-03,4.46875
3.2000e-03,12.4141
3.2800e-03,9.44531
3.3600e-03,4.59375
3.4400e-03,2.20703
3.5200e-03,1.11328
3.6000e-03,0.75
3.6800e-03,0.582031
3.7600e-03,0.703125
3.8400e-03,0.535156
3.9200e-03,0.703125
4.0000e-03,0.972656
4.0800e-03,1.14062
4.1600e-03,0.707031
4.2400e-03,0.902344
4.3200e-03,0.796875
4.4000e-03,0.679688
4.4800e-03,0.847656
4.5600e-03,1.31641
4.6400e-03,3.07422
4.7200e-03,7.65234
4.8000e-03,12.4961
4.8800e-03,6.125
4.9600e-03,3.05859
5.0400e-03,1.57812
5.1200e-03,0.734375
5.2000e-03,0.535156
5.2800e-03,0.644531
5.3600e-03,0.765625
5.4400e-03,0.761719
5.5200e-03,0.59375
5.6000e-03,0.84375
5.6800e-03,0.972656
5.7600e-03,0.75
5.8400e-03,1.04688
5.9200e-03,0.808594
6.0000e-03,0.785156
6.0800e-03,0.847656
6.1600e-03,1.09766
6.2400e-03,2.05469
6.3200e-03,4.40625
6.4000e-03,11.0586
6.4800e-03,8.78516
6.5600e-03,4.08203
6.6400e-03,2.10938
6.7200e-03,1.14062
6.8000e-03,0.855469
6.8800e-03,0.542969
6.9600e-03,0.644531
7.0400e-03,0.644531
7.1200e-03,0.644531
7.2000e-03,1.01562
7.2800e-03,0.839844
7.3600e-03,0.75
7.4400e-03,0.796875
7.5200e-03,0.640625
7.6000e-03,0.84375
7.6800e-03,0.964844
7.7600e-03,1.46875
7.8400e-03,2.96875
7.9200e-03,7.10547
8.0000e-03,11.0391
8.0800e-03,6.08203
8.1600e-03,2.68359
8.2400e-03,1.4375
8.3200e-03,0.796875
8.4000e-03,0.652344
8.4800e-03,0.535156
8.5600e-03,0.609375
8.6400e-03,0.773438
8.7200e-03,0.792969
8.8000e-03,0.96875
8.8800e-03,0.785156
8.9600e-03,0.609375
9.0400e-03,0.855469
9.1200e-03,0.703125
9.2000e-03,0.75
9.2800e-03,0.832031
9.3600e-03,1.00391
9.4400e-03,1.83984
9.5200e-03,4.63281
9.6000e-03,10.0586
9.6800e-03,8.10938
9.7600e-03,3.78125
9.8400e-03,2
9.9200e-03,1.14062
1.0000e-02,0.644531
1.0080e-02,0.546875
1.0160e-02,0.6875
1.0240e-02,0.546875
1.0320e-02,0.707031
1.0400e-02,0.695312
1.0480e-02,0.890625
1.0560e-02,1
1.0640e-02,0.855469
1.0720e-02,0.917969
1.0800e-02,0.605469
1.0880e-02,0.964844
1.0960e-02,1.48047
1.1040e-02,2.73438
1.1120e-02,6.51562
1.1200e-02,9.94922
1.1280e-02,6.33594
1.1360e-02,2.55078
1.1440e-02,1.22266
1.1520e-02,0.8125
1.1600e-02,0.640625
1.1680e-02,0.605469
1.1760e-02,0.6875
1.1840e-02,0.6875
1.1920e-02,0.703125
1.2000e-02,0.96875
1.2080e-02,0.890625
1.2160e-02,0.882812
1.2240e-02,0.847656
1.2320e-02,0.902344
1.2400e-02,0.8125
1.2480e-02,0.75
1.2560e-02,1.10938
1.2640e-02,1.92188
1.2720e-02,5.10938
1.2800e-02,9.37891
1.2880e-02,7.20312
1.2960e-02,3.73438
1.3040e-02,1.80078
1.3120e-02,1.09766
1.3200e-02,0.6875
1.3280e-02,0.609375
1.3360e-02,0.535156
1.3440e-02,0.609375
1.3520e-02,0.679688
1.3600e-02,0.910156
1.3680e-02,0.847656
1.3760e-02,0.644531
1.3840e-02,0.8125
1.3920e-02,0.855469
1.4000e-02,0.6875
1.4080e-02,0.644531
1.4160e-02,1.33984
1.4240e-02,2.71484
1.4320e-02,5.77734
1.4400e-02,9.1875
1.4480e-02,6.73828
1.4560e-02,2.62109
1.4640e-02,1.25
1.4720e-02,0.75
1.4800e-02,0.597656
1.4880e-02,0.765625
1.4960e-02,0.441406
1.5040e-02,0.640625
1.5120e-02,0.75
1.5200e-02,0.800781
1.5280e-02,0.9375
1.5360e-02,0.75
1.5440e-02,1
1.5520e-02,0.644531
1.5600e-02,0.65625
1.5680e-02,0.867188
1.5760e-02,1.0625
1.5840e-02,1.77734
1.5920e-02,5.375
1.6000e-02,8.94141
1.6080e-02,6.35547
1.6160e-02,3.59375
1.6240e-02,1.8125
1.6320e-02,0.9375
1.6400e-02,0.605469
1.6480e-02,0.5625
1.6560e-02,0.582031
1.6640e-02,0.640625
1.6720e-02,0.582031
1.6800e-02,0.765625
1.6880e-02,0.75
1.6960e-02,0.691406
1.7040e-02,0.824219
1.7120e-02,0.691406
1.7200e-02,0.75
1.7280e-02,0.707031
1.7360e-02,1.17188
1.7440e-02,2.625
1.7520e-02,4.91797
1.7600e-02,8.68359
1.7680e-02,6.79688
1.7760e-02,2.45312
1.7840e-02,1.22266
1.7920e-02,0.6875
1.8000e-02,0.582031
1.8080e-02,0.394531
1.8160e-02,0.582031
1.8240e-02,0.714844
1.8320e-02,0.753906
1.8400e-02,0.804688
1.8480e-02,0.890625
1.8560e-02,0.75
1.8640e-02,0.917969
1.8720e-02,0.839844
1.8800e-02,0.75
1.8880e-02,0.917969
1.8960e-02,0.964844
1.9040e-02,1.75781
1.9120e-02,5.41797
1.9200e-02,8.54688
1.9280e-02,5.40625
1.9360e-02,3.51172
1.9440e-02,1.77734
1.9520e-02,1.04297
1.9600e-02,0.570312
1.9680e-02,0.597656
1.9760e-02,0.605469
1.9840e-02,0.667969
1.9920e-02,0.703125
2.0000e-02,0.769531
2.0080e-02,0.9375
2.0160e-02,0.714844
2.0240e-02,0.75
2.0320e-02,0.679688
2.0400e-02,0.644531
2.0480e-02,0.714844
2.0560e-02,1.17188
2.0640e-02,2.51172
2.0720e-02,4.24219
2.0800e-02,8.20312
2.0880e-02,6.65625
2.0960e-02,2.51562
2.1040e-02,1.16406
2.1120e-02,0.640625
2.1200e-02,0.535156
2.1280e-02,0.5
2.1360e-02,0.714844
2.1440e-02,0.75
2.1520e-02,0.707031
2.1600e-02,0.863281
2.1680e-02,1.10547
2.1760e-02,0.714844
2.1840e-02,0.832031
2.1920e-02,0.714844
2.2000e-02,0.75
2.2080e-02,0.703125
2.2160e-02,0.679688
2.2240e-02,1.5625
2.2320e-02,5.18359
2.2400e-02,8.21875
2.2480e-02,5.08203
2.2560e-02,3.23828
2.2640e-02,1.51562
2.2720e-02,0.855469
2.2800e-02,0.6875
2.2880e-02,0.75
2.2960e-02,0.5625
2.3040e-02,0.546875
2.3120e-02,0.558594
2.3200e-02,0.800781
2.3280e-02,0.9375
2.3360e-02,0.703125
2.3440e-02,0.824219
2.3520e-02,0.714844
2.3600e-02,0.640625
