optical_pumping/0.5V0.02mT.CSV

Model,TBS2104
Firmware Version,v1.26.0

Point Format,Y
Horizontal Units,S
Horizontal Scale,0.02
Sample Interval,0.00016
Filter Frequency,1e+08
Record Length,2000
Gating,0.0% to 100.0%
Probe Attenuation,10
Vertical Units,V
Vertical Offset,0
Vertical Scale,0.02
Label,
TIME,CH2
-1.338e-01,0.0186719
-1.336e-01,0.0139844
-1.334e-01,0.0180586
-1.333e-01,0.0153945
-1.331e-01,0.0197187
-1.330e-01,0.0150859
-1.328e-01,0.0120586
-1.326e-01,0.0142109
-1.325e-01,0.0155508
-1.323e-01,0.0141055
-1.322e-01,0.016332
-1.320e-01,0.0120703
-1.318e-01,0.0137187
-1.317e-01,0.0141172
-1.315e-01,0.0159766
-1.314e-01,0.0154844
-1.312e-01,0.0140117
-1.310e-01,0.0116328
-1.309e-01,0.0107852
-1.307e-01,0.0201016
-1.306e-01,0.0121562
-1.304e-01,0.0153516
-1.302e-01,0.0119609
-1.301e-01,0.00728516
-1.299e-01,0.00920703
-1.298e-01,0.0157734
-1.296e-01,0.00794141
-1.294e-01,0.0135742
-1.293e-01,0.0155547
-1.291e-01,0.0102578
-1.290e-01,0.0173281
-1.288e-01,0.0103906
-1.286e-01,0.00577734
-1.285e-01,0.0142148
-1.283e-01,0.0197578
-1.282e-01,0.00940625
-1.280e-01,0.0151719
-1.278e-01,0.0115352
-1.277e-01,0.0166602
-1.275e-01,0.00965234
-1.274e-01,0.0110859
-1.272e-01,0.0119609
-1.270e-01,0.00904297
-1.269e-01,0.0145898
-1.267e-01,0.0141836
-1.266e-01,0.0133516
-1.264e-01,0.0179844
-1.262e-01,0.0150078
-1.261e-01,0.0160898
-1.259e-01,0.0102773
-1.258e-01,0.00836719
-1.256e-01,0.0129961
-1.254e-01,0.0117578
-1.253e-01,0.0127031
-1.251e-01,0.00441406
-1.250e-01,0.0139102
-1.248e-01,0.009875
-1.246e-01,0.0121172
-1.245e-01,0.00903516
-1.243e-01,0.00661328
-1.242e-01,0.0120195
-1.240e-01,0.0107539
-1.238e-01,0.0106758
-1.237e-01,0.00533984
-1.235e-01,0.0139531
-1.234e-01,0.00367969
-1.232e-01,0.0108516
-1.230e-01,0.0131016
-1.229e-01,0.00590625
-1.227e-01,0.00886719
-1.226e-01,0.00780469
-1.224e-01,0.00715234
-1.222e-01,0.00252734
-1.221e-01,0.00358594
-1.219e-01,-0.00170703
-1.218e-01,0.00475391
-1.216e-01,0.00385547
-1.214e-01,0.000835937
-1.213e-01,-0.00100781
-1.211e-01,0.00217969
-1.210e-01,-0.00188672
-1.208e-01,0.000171875
-1.206e-01,0.00730078
-1.205e-01,0.000453125
-1.203e-01,0.000972656
-1.202e-01,-0.00397266
-1.200e-01,0.00046875
-1.198e-01,0.00207422
-1.197e-01,-0.00483203
-1.195e-01,0.00258594
-1.194e-01,-0.00194922
-1.192e-01,0.00453906
-1.190e-01,-0.00335547
-1.189e-01,-0.0094375
-1.187e-01,0.00116016
-1.186e-01,-0.00353906
-1.184e-01,-0.00663672
-1.182e-01,-0.00680859
-1.181e-01,-0.00810156
-1.179e-01,-0.00712109
-1.178e-01,-0.0046875
-1.176e-01,-0.0136484
-1.174e-01,-0.0111953
-1.173e-01,-0.00795312
-1.171e-01,-0.01325
-1.170e-01,-0.0137383
-1.168e-01,-0.0127812
-1.166e-01,-0.0215508
-1.165e-01,-0.0180352
-1.163e-01,-0.0186094
-1.162e-01,-0.0213633
-1.160e-01,-0.0224219
-1.158e-01,-0.0226484
-1.157e-01,-0.0206484
-1.155e-01,-0.0220547
-1.154e-01,-0.0252539
-1.152e-01,-0.0315742
-1.150e-01,-0.0291172
-1.149e-01,-0.028082
-1.147e-01,-0.028832
-1.146e-01,-0.032418
-1.144e-01,-0.0295742
-1.142e-01,-0.0377422
-1.141e-01,-0.0385781
-1.139e-01,-0.0340664
-1.138e-01,-0.0387422
-1.136e-01,-0.037918
-1.134e-01,-0.0423945
-1.133e-01,-0.0431914
-1.131e-01,-0.0420547
-1.130e-01,-0.0456289
-1.128e-01,-0.0431641
-1.126e-01,-0.0550586
-1.125e-01,-0.0543477
-1.123e-01,-0.0569687
-1.122e-01,-0.0535234
-1.120e-01,-0.0586406
-1.118e-01,-0.0553086
-1.117e-01,-0.0631172
-1.115e-01,-0.0666914
-1.114e-01,-0.0659609
-1.112e-01,-0.0607734
-1.110e-01,-0.0634648
-1.109e-01,-0.0717812
-1.107e-01,-0.0655742
-1.106e-01,-0.0676914
-1.104e-01,-0.0666406
-1.102e-01,-0.0751289
-1.101e-01,-0.0768281
-1.099e-01,-0.0749336
-1.098e-01,-0.0745391
-1.096e-01,-0.0796172
-1.094e-01,-0.0743437
-1.093e-01,-0.0845391
-1.091e-01,-0.0822266
-1.090e-01,-0.0799609
-1.088e-01,-0.0726797
-1.086e-01,-0.0798359
-1.085e-01,-0.0743437
-1.083e-01,-0.073918
-1.082e-01,-0.0804727
-1.080e-01,-0.0813633
-1.078e-01,-0.0735469
-1.077e-01,-0.0750391
-1.075e-01,-0.0717578
-1.074e-01,-0.0740039
-1.072e-01,-0.0698242
-1.070e-01,-0.0701055
-1.069e-01,-0.0720117
-1.067e-01,-0.0744805
-1.066e-01,-0.0634844
-1.064e-01,-0.0718086
-1.062e-01,-0.0683008
-1.061e-01,-0.0679023
-1.059e-01,-0.0720156
-1.058e-01,-0.0599141
-1.056e-01,-0.0639453
-1.054e-01,-0.0618008
-1.053e-01,-0.0620117
-1.051e-01,-0.0579062
-1.050e-01,-0.0571523
-1.048e-01,-0.0558359
-1.046e-01,-0.0514414
-1.045e-01,-0.0562969
-1.043e-01,-0.052457
-1.042e-01,-0.0565391
-1.040e-01,-0.0493633
-1.038e-01,-0.0522187
-1.037e-01,-0.0466602
-1.035e-01,-0.0434375
-1.034e-01,-0.0427891
-1.032e-01,-0.0451797
-1.030e-01,-0.0422969
-1.029e-01,-0.0414648
-1.027e-01,-0.0455781
-1.026e-01,-0.0366602
-1.024e-01,-0.0318516
-1.022e-01,-0.0310508
-1.021e-01,-0.0360937
-1.019e-01,-0.0333281
-1.018e-01,-0.0315195
-1.016e-01,-0.0292617
-1.014e-01,-0.0305977
-1.013e-01,-0.0299961
-1.011e-01,-0.0306211
-1.010e-01,-0.026582
-1.008e-01,-0.0228672
-1.006e-01,-0.0235742
-1.005e-01,-0.0207266
-1.003e-01,-0.0246836
-1.002e-01,-0.0196953
-1.000e-01,-0.0212812
-9.984e-02,-0.0171211
-9.968e-02,-0.0144687
-9.952e-02,-0.0172695
-9.936e-02,-0.0133672
-9.920e-02,-0.017
-9.904e-02,-0.0173867
-9.888e-02,-0.013707
-9.872e-02,-0.0103008
-9.856e-02,-0.0156602
-9.840e-02,-0.00965234
-9.824e-02,-0.0116484
-9.808e-02,-0.00391406
-9.792e-02,-0.00985547
-9.776e-02,-0.0116992
-9.760e-02,-0.00840625
-9.744e-02,-0.00449609
-9.728e-02,0.00267187
-9.712e-02,-0.00352734
-9.696e-02,-0.00636719
-9.680e-02,-0.00172656
-9.664e-02,-0.00475
-9.648e-02,0.000363281
-9.632e-02,-7.8125e-05
-9.616e-02,-0.00166016
-9.600e-02,-0.00209766
-9.584e-02,-0.00501953
-9.568e-02,0.0025625
-9.552e-02,-0.000152344
-9.536e-02,-0.00180859
-9.520e-02,0.00526953
-9.504e-02,0.0006875
-9.488e-02,0.00684375
-9.472e-02,-0.00271094
-9.456e-02,0.00737109
-9.440e-02,0.00283984
-9.424e-02,0.00328125
-9.408e-02,0.00714062
-9.392e-02,0.00653906
-9.376e-02,0.000335937
-9.360e-02,0.0157227
-9.344e-02,0.00677734
-9.328e-02,0.0143164
-9.312e-02,0.00715234
-9.296e-02,0.00769922
-9.280e-02,0.0115937
-9.264e-02,0.0102383
-9.248e-02,0.00982031
-9.232e-02,0.0112773
-9.216e-02,0.0112734
-9.200e-02,0.0108086
-9.184e-02,0.0161758
-9.168e-02,0.0115742
-9.152e-02,0.0113125
-9.136e-02,0.00808203
-9.120e-02,0.0143516
-9.104e-02,0.0126641
-9.088e-02,0.0139141
-9.072e-02,0.0111133
-9.056e-02,0.0126641
-9.040e-02,0.0147695
-9.024e-02,0.0161211
-9.008e-02,0.013207
-8.992e-02,0.0187383
-8.976e-02,0.0118594
-8.960e-02,0.0155391
-8.944e-02,0.021082
-8.928e-02,0.0117617
-8.912e-02,0.0122031
-8.896e-02,0.0120469
-8.880e-02,0.0170195
-8.864e-02,0.0148672
-8.848e-02,0.0162969
-8.832e-02,0.016832
-8.816e-02,0.0198672
-8.800e-02,0.0172422
-8.784e-02,0.0161797
-8.768e-02,0.0201523
-8.752e-02,0.0182109
-8.736e-02,0.0219102
-8.720e-02,0.0194727
-8.704e-02,0.0147187
-8.688e-02,0.0191133
-8.672e-02,0.0145781
-8.656e-02,0.0144336
-8.640e-02,0.0218594
-8.624e-02,0.0116562
-8.608e-02,0.0203945
-8.592e-02,0.013293
-8.576e-02,0.0164219
-8.560e-02,0.01675
-8.544e-02,0.0200586
-8.528e-02,0.0165117
-8.512e-02,0.0139922
-8.496e-02,0.0183008
-8.480e-02,0.0165898
-8.464e-02,0.0133125
-8.448e-02,0.0180586
-8.432e-02,0.0228516
-8.416e-02,0.0236289
-8.400e-02,0.0158828
-8.384e-02,0.0195
-8.368e-02,0.0173906
-8.352e-02,0.0213555
-8.336e-02,0.0134258
-8.320e-02,0.0167422
-8.304e-02,0.0133789
-8.288e-02,0.009875
-8.272e-02,0.0213359
-8.256e-02,0.0222852
-8.240e-02,0.0160039
-8.224e-02,0.0170039
-8.208e-02,0.013
-8.192e-02,0.0139961
-8.176e-02,0.0155039
-8.160e-02,0.009375
-8.144e-02,0.0150273
-8.128e-02,0.0134766
-8.112e-02,0.0129297
-8.096e-02,0.0141523
-8.080e-02,0.0162617
-8.064e-02,0.0127187
-8.048e-02,0.0153086
-8.032e-02,0.0140625
-8.016e-02,0.00721875
-8.000e-02,0.0156875
-7.984e-02,0.0129336
-7.968e-02,0.0134492
-7.952e-02,0.0110352
-7.936e-02,0.0188555
-7.920e-02,0.0136094
-7.904e-02,0.0154062
-7.888e-02,0.00573828
-7.872e-02,0.0108359
-7.856e-02,0.0112383
-7.840e-02,0.0160586
-7.824e-02,0.0161328
-7.808e-02,0.0194219
-7.792e-02,0.0157656
-7.776e-02,0.0141719
-7.760e-02,0.013918
-7.744e-02,0.00773828
-7.728e-02,0.00932812
-7.712e-02,0.00967969
-7.696e-02,0.00744141
-7.680e-02,0.0112266
-7.664e-02,0.0113203
-7.648e-02,-0.00908984
-7.632e-02,-0.0125586
-7.616e-02,-0.01725
-7.600e-02,-0.0289687
-7.584e-02,-0.023125
-7.568e-02,-0.0456406
-7.552e-02,-0.0422812
-7.536e-02,-0.0500469
-7.520e-02,-0.0472031
-7.504e-02,-0.0459961
-7.488e-02,-0.0495195
-7.472e-02,-0.0437031
-7.456e-02,-0.0554375
-7.440e-02,-0.0474414
-7.424e-02,-0.0483906
-7.408e-02,-0.0514727
-7.392e-02,-0.0503555
-7.376e-02,-0.0511172
-7.360e-02,-0.0521484
-7.344e-02,-0.0566562
-7.328e-02,-0.0561836
-7.312e-02,-0.0586445
-7.296e-02,-0.0577148
-7.280e-02,-0.0595977
-7.264e-02,-0.0690312
-7.248e-02,-0.0610352
-7.232e-02,-0.0648867
-7.216e-02,-0.0628867
-7.200e-02,-0.0663398
-7.184e-02,-0.0707617
-7.168e-02,-0.0746914
-7.152e-02,-0.0735781
-7.136e-02,-0.0794219
-7.120e-02,-0.082707
-7.104e-02,-0.0870039
-7.088e-02,-0.0836641
-7.072e-02,-0.0838125
-7.056e-02,-0.078375
-7.040e-02,-0.0786602
-7.024e-02,-0.0775547
-7.008e-02,-0.0720781
-6.992e-02,-0.0760547
-6.976e-02,-0.0674531
-6.960e-02,-0.0745156
-6.944e-02,-0.0678047
-6.928e-02,-0.0629883
-6.912e-02,-0.0581992
-6.896e-02,-0.0621641
-6.880e-02,-0.0631211
-6.864e-02,-0.0631875
-6.848e-02,-0.0587578
-6.832e-02,-0.0598906
-6.816e-02,-0.0631211
-6.800e-02,-0.0651602
-6.784e-02,-0.0613398
-6.768e-02,-0.0626094
-6.752e-02,-0.0639961
-6.736e-02,-0.0636914
-6.720e-02,-0.0615039
-6.704e-02,-0.0671914
-6.688e-02,-0.0625937
-6.672e-02,-0.0644531
-6.656e-02,-0.061832
-6.640e-02,-0.0603945
-6.624e-02,-0.064457
-6.608e-02,-0.0619687
-6.592e-02,-0.0638008
-6.576e-02,-0.0494141
-6.560e-02,-0.0523828
-6.544e-02,-0.0543945
-6.528e-02,-0.0524922
-6.512e-02,-0.05675
-6.496e-02,-0.0523594
-6.480e-02,-0.0440508
-6.464e-02,-0.0472812
-6.448e-02,-0.0490508
-6.432e-02,-0.046418
-6.416e-02,-0.0472539
-6.400e-02,-0.0475664
-6.384e-02,-0.049375
-6.368e-02,-0.04525
-6.352e-02,-0.0425352
-6.336e-02,-0.0470508
-6.320e-02,-0.0426797
-6.304e-02,-0.0510586
-6.288e-02,-0.0534336
-6.272e-02,-0.048332
-6.256e-02,-0.0423984
-6.240e-02,-0.0441992
-6.224e-02,-0.0473594
-6.208e-02,-0.0513945
-6.192e-02,-0.048793
-6.176e-02,-0.0493711
-6.160e-02,-0.0418047
-6.144e-02,-0.0464687
-6.128e-02,-0.046582
-6.112e-02,-0.0363203
-6.096e-02,-0.0426172
-6.080e-02,-0.0357773
-6.064e-02,-0.0347695
-6.048e-02,-0.0369883
-6.032e-02,-0.0373984
-6.016e-02,-0.0304062
-6.000e-02,-0.0314297
-5.984e-02,-0.0327266
-5.968e-02,-0.0416172
-5.952e-02,-0.0414414
-5.936e-02,-0.0318047
-5.920e-02,-0.035043
-5.904e-02,-0.0337891
-5.888e-02,-0.0303906
-5.872e-02,-0.0345
-5.856e-02,-0.0270273
-5.840e-02,-0.0253984
-5.824e-02,-0.0290156
-5.808e-02,-0.0281133
-5.792e-02,-0.0217187
-5.776e-02,-0.0193086
-5.760e-02,-0.019582
-5.744e-02,-0.0215859
-5.728e-02,-0.0170977
-5.712e-02,-0.0152461
-5.696e-02,-0.0139336
-5.680e-02,-0.0103125
-5.664e-02,-0.0119219
-5.648e-02,-0.0159766
-5.632e-02,-0.0131445
-5.616e-02,-0.0185664
-5.600e-02,-0.00684375
-5.584e-02,-0.0185937
-5.568e-02,-0.0167344
-5.552e-02,-0.017918
-5.536e-02,-0.0330508
-5.520e-02,-0.0297578
-5.504e-02,-0.0307422
-5.488e-02,-0.0328672
-5.472e-02,-0.0307266
-5.456e-02,-0.0394531
-5.440e-02,-0.0355039
-5.424e-02,-0.0387891
-5.408e-02,-0.0295
-5.392e-02,-0.0360273
-5.376e-02,-0.0316641
-5.360e-02,-0.0281719
-5.344e-02,-0.0224297
-5.328e-02,-0.0234492
-5.312e-02,-0.0227734
-5.296e-02,-0.0202734
-5.280e-02,-0.0189102
-5.264e-02,-0.0156523
-5.248e-02,-0.0175977
-5.232e-02,-0.0142148
-5.216e-02,-0.0160352
-5.200e-02,-0.0148437
-5.184e-02,-0.00859375
-5.168e-02,-0.00842187
-5.152e-02,-0.0125195
-5.136e-02,-0.0101719
-5.120e-02,-0.0214297
-5.104e-02,-0.0189102
-5.088e-02,-0.0246875
-5.072e-02,-0.0249141
-5.056e-02,-0.0179297
-5.040e-02,-0.0246953
-5.024e-02,-0.0298008
-5.008e-02,-0.0277344
-4.992e-02,-0.0273164
-4.976e-02,-0.022293
-4.960e-02,-0.0203477
-4.944e-02,-0.0204609
-4.928e-02,-0.0162422
-4.912e-02,-0.0184102
-4.896e-02,-0.0125312
-4.880e-02,-0.0143828
-4.864e-02,-0.00816406
-4.848e-02,-0.00944141
-4.832e-02,-0.005625
-4.816e-02,-0.00694531
-4.800e-02,-0.00453906
-4.784e-02,-0.00433594
-4.768e-02,-0.00435156
-4.752e-02,-0.00301562
-4.736e-02,0.000691406
-4.720e-02,-0.0040625
-4.704e-02,-0.00376172
-4.688e-02,0.00120312
-4.672e-02,0.00212891
-4.656e-02,0.000113281
-4.640e-02,0.00428906
-4.624e-02,0.00499609
-4.608e-02,0.00687891
-4.592e-02,0.00480859
-4.576e-02,0.00510937
-4.560e-02,0.00558203
-4.544e-02,0.000261719
-4.528e-02,0.00301562
-4.512e-02,-0.00249609
-4.496e-02,0.00563281
-4.480e-02,0.000398437
-4.464e-02,-0.0023125
-4.448e-02,-0.0226367
-4.432e-02,-0.0237539
-4.416e-02,-0.0193125
-4.400e-02,-0.0207852
-4.384e-02,-0.0245781
-4.368e-02,-0.0239609
-4.352e-02,-0.0256875
-4.336e-02,-0.0174531
-4.320e-02,-0.0203594
-4.304e-02,-0.0152617
-4.288e-02,-0.0208711
-4.272e-02,-0.0208359
-4.256e-02,-0.0185156
-4.240e-02,-0.0237461
-4.224e-02,-0.0244727
-4.208e-02,-0.0287031
-4.192e-02,-0.0468984
-4.176e-02,-0.0454883
-4.160e-02,-0.0431875
-4.144e-02,-0.044668
-4.128e-02,-0.0484141
-4.112e-02,-0.0462695
-4.096e-02,-0.0444453
-4.080e-02,-0.0381406
-4.064e-02,-0.0380898
-4.048e-02,-0.0351758
-4.032e-02,-0.035082
-4.016e-02,-0.034957
-4.000e-02,-0.0333086
-3.984e-02,-0.0318594
-3.968e-02,-0.0325781
-3.952e-02,-0.0325469
-3.936e-02,-0.0242305
-3.920e-02,-0.0204492
-3.904e-02,-0.0280312
-3.888e-02,-0.0223008
-3.872e-02,-0.0172422
-3.856e-02,-0.0214844
-3.840e-02,-0.0196211
-3.824e-02,-0.01375
-3.808e-02,-0.00712109
-3.792e-02,-0.0187891
-3.776e-02,-0.0123789
-3.760e-02,-0.00621094
-3.744e-02,-0.00751172
-3.728e-02,-0.00801562
-3.712e-02,-0.00397266
-3.696e-02,-0.00305469
-3.680e-02,-0.00520312
-3.664e-02,-0.00153906
-3.648e-02,-0.00350391
-3.632e-02,-0.00354687
-3.616e-02,-3.51562e-05
-3.600e-02,0.00647266
-3.584e-02,0.00462109
-3.568e-02,0.00317969
-3.552e-02,0.00757812
-3.536e-02,0.0030625
-3.520e-02,0.0104062
-3.504e-02,0.00625
-3.488e-02,0.0089375
-3.472e-02,0.00543359
-3.456e-02,0.0133711
-3.440e-02,0.0145273
-3.424e-02,0.0115625
-3.408e-02,0.0120234
-3.392e-02,0.00959375
-3.376e-02,0.0128398
-3.360e-02,0.0145508
-3.344e-02,0.0118281
-3.328e-02,0.0161445
-3.312e-02,0.0132852
-3.296e-02,0.0112383
-3.280e-02,0.00888672
-3.264e-02,0.0135664
-3.248e-02,0.0151484
-3.232e-02,0.0169766
-3.216e-02,0.0210039
-3.200e-02,0.0104687
-3.184e-02,0.0210859
-3.168e-02,0.0218789
-3.152e-02,0.0191523
-3.136e-02,0.0185781
-3.120e-02,0.0258555
-3.104e-02,0.0282422
-3.088e-02,0.0224531
-3.072e-02,0.0211953
-3.056e-02,0.0255078
-3.040e-02,0.0269336
-3.024e-02,0.0290234
-3.008e-02,0.0292773
-2.992e-02,0.033332
-2.976e-02,0.0298008
-2.960e-02,0.0332187
-2.944e-02,0.0333789
-2.928e-02,0.037543
-2.912e-02,0.0288477
-2.896e-02,0.03075
-2.880e-02,0.0284453
-2.864e-02,0.0365273
-2.848e-02,0.0335391
-2.832e-02,0.0337656
-2.816e-02,0.0304727
-2.800e-02,0.0386445
-2.784e-02,0.0320508
-2.768e-02,0.0221328
-2.752e-02,0.0220039
-2.736e-02,0.0233359
-2.720e-02,0.0251016
-2.704e-02,0.0183828
-2.688e-02,-0.0127852
-2.672e-02,-0.0197617
-2.656e-02,-0.0178984
-2.640e-02,-0.0306289
-2.624e-02,-0.0246914
-2.608e-02,-0.0359805
-2.592e-02,-0.0373008
-2.576e-02,-0.0366484
-2.560e-02,-0.0315508
-2.544e-02,-0.0321797
-2.528e-02,-0.0233672
-2.512e-02,-0.0249883
-2.496e-02,-0.0251055
-2.480e-02,-0.0273984
-2.464e-02,-0.0247578
-2.448e-02,-0.016582
-2.432e-02,-0.023375
-2.416e-02,-0.0199609
-2.400e-02,-0.0163164
-2.384e-02,-0.0111719
-2.368e-02,-0.0143477
-2.352e-02,-0.00807031
-2.336e-02,-0.0136914
-2.320e-02,-0.0111133
-2.304e-02,-0.00946875
-2.288e-02,-0.00685937
-2.272e-02,-0.0143906
-2.256e-02,-0.00775
-2.240e-02,-0.00484375
-2.224e-02,-0.0107344
-2.208e-02,-0.0102734
-2.192e-02,-0.0112187
-2.176e-02,-0.013168
-2.160e-02,-0.0144609
-2.144e-02,-0.022918
-2.128e-02,-0.0168281
-2.112e-02,-0.0195937
-2.096e-02,-0.0376289
-2.080e-02,-0.0383086
-2.064e-02,-0.0388867
-2.048e-02,-0.0442383
-2.032e-02,-0.0409609
-2.016e-02,-0.0576562
-2.000e-02,-0.0664687
-1.984e-02,-0.0604141
-1.968e-02,-0.0599023
-1.952e-02,-0.0551016
-1.936e-02,-0.0646797
-1.920e-02,-0.0695039
-1.904e-02,-0.0565664
-1.888e-02,-0.0584844
-1.872e-02,-0.0546602
-1.856e-02,-0.0570977
-1.840e-02,-0.0582578
-1.824e-02,-0.0471445
-1.808e-02,-0.0523398
-1.792e-02,-0.0454336
-1.776e-02,-0.0457227
-1.760e-02,-0.0505156
-1.744e-02,-0.0469141
-1.728e-02,-0.0457187
-1.712e-02,-0.0440234
-1.696e-02,-0.0451367
-1.680e-02,-0.0329062
-1.664e-02,-0.0342266
-1.648e-02,-0.0328086
-1.632e-02,-0.0263516
-1.616e-02,-0.0245859
-1.600e-02,-0.0239453
-1.584e-02,-0.021875
-1.568e-02,-0.0223867
-1.552e-02,-0.0149727
-1.536e-02,-0.0218789
-1.520e-02,-0.0205625
-1.504e-02,-0.0126797
-1.488e-02,-0.00935547
-1.472e-02,-0.00767969
-1.456e-02,-0.00193359
-1.440e-02,-0.00713281
-1.424e-02,-0.00111719
-1.408e-02,-0.00402344
-1.392e-02,-0.00485547
-1.376e-02,0.00107031
-1.360e-02,-0.00140234
-1.344e-02,0.00533203
-1.328e-02,0.0045625
-1.312e-02,0.00630469
-1.296e-02,0.00729297
-1.280e-02,0.00740234
-1.264e-02,0.00642187
-1.248e-02,0.00850391
-1.232e-02,0.00747266
-1.216e-02,0.00642187
-1.200e-02,0.0177578
-1.184e-02,0.00908984
-1.168e-02,0.00957812
-1.152e-02,0.008875
-1.136e-02,0.0102734
-1.120e-02,0.0131484
-1.104e-02,0.0224062
-1.088e-02,0.0196914
-1.072e-02,0.0148984
-1.056e-02,0.0164687
-1.040e-02,0.0121055
-1.024e-02,0.0200781
-1.008e-02,0.0131992
-9.920e-03,0.0148437
-9.760e-03,0.0171289
-9.600e-03,0.0157812
-9.440e-03,0.0150937
-9.280e-03,0.0157891
-9.120e-03,0.0162773
-8.960e-03,0.0190898
-8.800e-03,0.0212617
-8.640e-03,0.0224766
-8.480e-03,0.0270469
-8.320e-03,0.0251133
-8.160e-03,0.0221953
-8.000e-03,0.0301055
-7.840e-03,0.0273398
-7.680e-03,0.0266914
-7.520e-03,0.0299844
-7.360e-03,0.0298047
-7.200e-03,0.0288359
-7.040e-03,0.0342617
-6.880e-03,0.0387812
-6.720e-03,0.0268516
-6.560e-03,0.034125
-6.400e-03,0.0336641
-6.240e-03,0.0316055
-6.080e-03,0.0375312
-5.920e-03,0.03675
-5.760e-03,0.0363086
-5.600e-03,0.0352422
-5.440e-03,0.036
-5.280e-03,0.0354453
-5.120e-03,0.039668
-4.960e-03,0.0394961
-4.800e-03,0.0382891
-4.640e-03,0.0367891
-4.480e-03,0.0410117
-4.320e-03,0.0443242
-4.160e-03,0.0386055
-4.000e-03,0.0410859
-3.840e-03,0.0408086
-3.680e-03,0.0358945
-3.520e-03,0.0391094
-3.360e-03,0.0457266
-3.200e-03,0.0484766
-3.040e-03,0.0408906
-2.880e-03,0.0336758
-2.720e-03,0.0469102
-2.560e-03,0.0417266
-2.400e-03,0.0420391
-2.240e-03,0.0485273
-2.080e-03,0.0436914
-1.920e-03,0.0419844
-1.760e-03,0.0420234
-1.600e-03,0.04175
-1.440e-03,0.0439883
-1.280e-03,0.0439687
-1.120e-03,0.0456133
-9.600e-04,0.0430469
-8.000e-04,0.0443594
-6.400e-04,0.0465664
-4.800e-04,0.0509883
-3.200e-04,0.0470234
-1.600e-04,0.0466133
-2.710e-15,0.042957
1.600e-04,0.0507148
3.200e-04,0.044918
4.800e-04,0.0438437
6.400e-04,0.0492734
8.000e-04,0.052375
9.600e-04,0.0463906
1.120e-03,0.0424687
1.280e-03,0.048168
1.440e-03,0.0474922
1.600e-03,0.0426562
1.760e-03,0.0502852
1.920e-03,0.0454531
2.080e-03,0.0505625
2.240e-03,0.048125
2.400e-03,0.0495508
2.560e-03,0.0487461
2.720e-03,0.0467305
2.880e-03,0.0475664
3.040e-03,0.043707
3.200e-03,0.0478633
3.360e-03,0.0499219
3.520e-03,0.0440625
3.680e-03,0.0487383
3.840e-03,0.0535703
4.000e-03,0.0490078
4.160e-03,0.0402266
4.320e-03,0.0426992
4.480e-03,0.0485937
4.640e-03,0.0457383
4.800e-03,0.0482148
4.960e-03,0.0419727
5.120e-03,0.0348242
5.280e-03,0.0320977
5.440e-03,0.0370898
5.600e-03,0.0288047
5.760e-03,0.0285234
5.920e-03,0.0296406
6.080e-03,0.0327773
6.240e-03,0.0255156
6.400e-03,0.0368984
6.560e-03,0.0278477
6.720e-03,0.0296406
6.880e-03,0.0276641
7.040e-03,0.0264258
7.200e-03,0.0242031
7.360e-03,0.0299805
7.520e-03,0.0154414
7.680e-03,0.0185273
7.840e-03,0.0198555
8.000e-03,0.0100781
8.160e-03,0.0143203
8.320e-03,0.000339844
8.480e-03,-0.0145703
8.640e-03,-0.0209727
8.800e-03,-0.0211289
8.960e-03,-0.023707
9.120e-03,-0.0283047
9.280e-03,-0.0662422
9.440e-03,-0.0605703
9.600e-03,-0.0660156
9.760e-03,-0.070625
9.920e-03,-0.0694609
1.008e-02,-0.0848633
1.024e-02,-0.085793
1.040e-02,-0.0825898
1.056e-02,-0.0835039
1.072e-02,-0.0782969
1.088e-02,-0.0827383
1.104e-02,-0.0830469
1.120e-02,-0.0760039
1.136e-02,-0.0732109
1.152e-02,-0.0743789
1.168e-02,-0.065457
1.184e-02,-0.0633008
1.200e-02,-0.0571641
1.216e-02,-0.0588086
1.232e-02,-0.0581523
1.248e-02,-0.048168
1.264e-02,-0.0492656
